homework06
…
i Use `spec()` to retrieve the full column specification for this data.
i Specify the column types or set `show_col_types = FALSE` to quiet this message.

# A tibble: 13,559 x 5
   ensembl_gene_id symbol  name                               gene_group ccds_id
   <chr>           <chr>   <chr>                              <chr>      <chr>  
 1 ENSG00000121410 A1BG    alpha-1-B glycoprotein             Immunoglo~ CCDS12~
 2 ENSG00000175899 A2M     alpha-2-macroglobulin              Alpha-2-m~ CCDS44~
 3 ENSG00000166535 A2ML1   alpha-2-macroglobulin like 1       Alpha-2-m~ CCDS85~
 4 ENSG00000184389 A3GALT2 alpha 1,3-galactosyltransferase 2  Glycosylt~ CCDS60~
 5 ENSG00000128274 A4GALT  alpha 1,4-galactosyltransferase (~ Alpha 1,4~ CCDS14~
 6 ENSG00000118017 A4GNT   alpha-1,4-N-acetylglucosaminyltra~ Alpha 1,4~ CCDS30~
 7 ENSG00000081760 AACS    acetoacetyl-CoA synthetase         Acyl-CoA ~ CCDS92~
 8 ENSG00000114771 AADAC   arylacetamide deacetylase          Lipases|A~ CCDS33~
 9 ENSG00000197953 AADACL2 arylacetamide deacetylase like 2   Arylaceta~ CCDS31~
10 ENSG00000188984 AADACL3 arylacetamide deacetylase like 3   Arylaceta~ CCDS41~
# i 13,549 more rows
…
Rows: 63677 Columns: 15
-- Column specification --------------------------------------------------------
Delimiter: "\t"
chr  (1): ENSEMBL gene
dbl (14): CD34_shTSR2_RNA_1, CD34_shTSR2_RNA_2, CD34_shRPL5_RNA_1, CD34_shRP...

i Use `spec()` to retrieve the full column specification for this data.
i Specify the column types or set `show_col_types = FALSE` to quiet this message.

# A tibble: 63,677 x 15
   ensembl_gene_id CD34_shTSR2_RNA_1 CD34_shTSR2_RNA_2 CD34_shRPL5_RNA_1
   <chr>                       <dbl>             <dbl>             <dbl>
 1 ENSG00000000003                48                56                40
 2 ENSG00000000005                 0                 2                 0
 3 ENSG00000000419               880               744              1116
 4 ENSG00000000457               124               113               149
 5 ENSG00000000460               249               262               289
 6 ENSG00000000938                89                64               204
 7 ENSG00000000971               106                86               241
 8 ENSG00000001036               897               613              1487
 9 ENSG00000001084               965              1027              1036
10 ENSG00000001167               721               835               498
# i 63,667 more rows
# i 11 more variables: CD34_shRPL5_RNA_2 <dbl>, CD34_shRPL5_RPF_1 <dbl>,
#   CD34_shRPL5_RPF_2 <dbl>, CD34_shRPS19_RNA_1 <dbl>,
#   CD34_shRPS19_RNA_2 <dbl>, CD34_shRPS19_RPF_1 <dbl>,
#   CD34_shRPS19_RPF_2 <dbl>, CD34_shLuc_RNA_1 <dbl>, CD34_shLuc_RNA_2 <dbl>,
#   CD34_shLuc_RPF_1 <dbl>, CD34_shLuc_RPF_2 <dbl>
…
Write a code cell to select the following columns from the data variable you created above and reassign back to data.

Columns to select: ensembl_gene_id, columns that have either RPL5, RPS19, or Luc in their name.

Instead of listing every column, use matches and a succinct regular expression to select the above columns.

In[27]:

data <- data  %>% 
    select(ensembl_gene_id, contains("RPL5", ignore.case = TRUE),
           contains("RPS19", ignore.case = TRUE),
           contains("Luc", ignore.case = TRUE))
print(data)

# A tibble: 63,677 x 13
   ensembl_gene_id CD34_shRPL5_RNA_1 CD34_shRPL5_RNA_2 CD34_shRPL5_RPF_1
   <chr>                       <dbl>             <dbl>             <dbl>
 1 ENSG00000000003                40                49                 6
 2 ENSG00000000005                 0                 0                 0
 3 ENSG00000000419              1116              1000               101
 4 ENSG00000000457               149               126                14
 5 ENSG00000000460               289               268                52
 6 ENSG00000000938               204               145                17
 7 ENSG00000000971               241               203                45
 8 ENSG00000001036              1487               936               182
 9 ENSG00000001084              1036              1224               134
10 ENSG00000001167               498               557                75
# i 63,667 more rows
# i 9 more variables: CD34_shRPL5_RPF_2 <dbl>, CD34_shRPS19_RNA_1 <dbl>,
#   CD34_shRPS19_RNA_2 <dbl>, CD34_shRPS19_RPF_1 <dbl>,
#   CD34_shRPS19_RPF_2 <dbl>, CD34_shLuc_RNA_1 <dbl>, CD34_shLuc_RNA_2 <dbl>,
#   CD34_shLuc_RPF_1 <dbl>, CD34_shLuc_RPF_2 <dbl>
…
You might be tempted to do this step separately for each of the 12 columns, but instead use the across function you learned above or the pivot_longer function from the class (either way is fine).

In[28]:

data <- data  %>%
    filter(across(c(2:13), ~ . >= 50))
print(data)

Warning message:
"Using `across()` in `filter()` was deprecated in dplyr 1.0.8.
i Please use `if_any()` or `if_all()` instead."

# A tibble: 4,239 x 13
   ensembl_gene_id CD34_shRPL5_RNA_1 CD34_shRPL5_RNA_2 CD34_shRPL5_RPF_1
   <chr>                       <dbl>             <dbl>             <dbl>
 1 ENSG00000000419              1116              1000               101
 2 ENSG00000001036              1487               936               182
 3 ENSG00000001084              1036              1224               134
 4 ENSG00000001497              1436              1231               253
 5 ENSG00000002549              1228              1186               285
 6 ENSG00000002586              2746              1600               260
 7 ENSG00000002834              4346              3800               254
 8 ENSG00000003056              1379              1661               321
 9 ENSG00000003393               832               690                84
10 ENSG00000003402              1836              1382                95
# i 4,229 more rows
# i 9 more variables: CD34_shRPL5_RPF_2 <dbl>, CD34_shRPS19_RNA_1 <dbl>,
#   CD34_shRPS19_RNA_2 <dbl>, CD34_shRPS19_RPF_1 <dbl>,
#   CD34_shRPS19_RPF_2 <dbl>, CD34_shLuc_RNA_1 <dbl>, CD34_shLuc_RNA_2 <dbl>,
#   CD34_shLuc_RPF_1 <dbl>, CD34_shLuc_RPF_2 <dbl>
…
In[45]:

lfc <- data_summary %>%
  mutate(mean_rpl5_te = ((CD34_shRPL5_RPF_1 + CD34_shRPL5_RPF_2)) /
                            ((CD34_shRPL5_RNA_1 + CD34_shRPL5_RNA_2))) %>%
  mutate(mean_rps19_te = ((CD34_shRPS19_RPF_1 + CD34_shRPS19_RPF_2)) /
                            ((CD34_shRPS19_RNA_1 + CD34_shRPS19_RNA_2))) %>%
  mutate(mean_shluc_te = ((CD34_shLuc_RPF_1 + CD34_shLuc_RPF_2)) /
                            ((CD34_shLuc_RNA_1 + CD34_shLuc_RNA_2))) %>%
  select(ensembl_gene_id, mean_rpl5_te, mean_rps19_te, mean_shluc_te) %>%
  mutate(lfc_te_rpl5 = log2(mean_rpl5_te / mean_shluc_te),
         lfc_te_rps19 = log2(mean_rps19_te / mean_shluc_te)) %>%
  print()

# A tibble: 4,239 x 6
   ensembl_gene_id mean_rpl5_te mean_rps19_te mean_shluc_te lfc_te_rpl5
   <chr>                  <dbl>         <dbl>         <dbl>       <dbl>
 1 ENSG00000000419       0.165         0.253         0.163       0.0230
 2 ENSG00000001036       0.197         0.183         0.211      -0.0968
 3 ENSG00000001084       0.181         0.192         0.126       0.526 
 4 ENSG00000001497       0.232         0.175         0.262      -0.172 
 5 ENSG00000002549       0.303         0.308         0.228       0.411 
 6 ENSG00000002586       0.151         0.140         0.171      -0.178 
 7 ENSG00000002834       0.0818        0.0667        0.0771      0.0840
 8 ENSG00000003056       0.335         0.309         0.151       1.15  
 9 ENSG00000003393       0.141         0.194         0.0683      1.04  
10 ENSG00000003402       0.0879        0.0701        0.0518      0.763 
# i 4,229 more rows
# i 1 more variable: lfc_te_rps19 <dbl>
…
ENSG000000014970.23247090.17464490.2618858-0.17188739-0.5845131

ENSG000000025490.30323120.30754720.2280811 0.41087092 0.4312607

ENSG000000025860.15071330.13972360.1705521-0.17840619-0.2876370

In[68]:

mean_lfc <- lfc  %>% 
    mutate(avg_lfc = ((lfc_te_rpl5 + lfc_te_rps19) / 2)) %>%
    select(ensembl_gene_id, avg_lfc) %>%
    print()

# A tibble: 4,239 x 2
   ensembl_gene_id avg_lfc
   <chr>             <dbl>
 1 ENSG00000000419  0.328 
 2 ENSG00000001036 -0.150 
 3 ENSG00000001084  0.569 
 4 ENSG00000001497 -0.378 
 5 ENSG00000002549  0.421 
 6 ENSG00000002586 -0.233 
 7 ENSG00000002834 -0.0623
 8 ENSG00000003056  1.09  
 9 ENSG00000003393  1.27  
10 ENSG00000003402  0.600 
# i 4,229 more rows
…
